n   m   p               error^2     max_error
1   1   1.000000e-01    57.85       0.1608
2   1   1.000000e-01    11.21       0.07318
2   2   1.000000e-01    0.8176      0.02928
3   1   1.000000e-01    5.168       0.05174
3   2   1.000000e-01    9.269e-13   1.951e-08
3   3   1.000000e-01    8.053e-13   1.587e-08
4   1   1.000000e-01    3.911       0.0459
4   2   1.000000e-01    3.911       0.0459
4   3   1.000000e-01    9.986e-13   2.355e-08
4   4   1.000000e-01    1.382e-12   3.005e-08
5   1   1.000000e-01    3.257       0.04231
5   2   1.000000e-01    3.257       0.04231
5   3   1.000000e-01    3.257       0.04231
5   4   1.000000e-01    7.328e-13   1.958e-08
5   5   1.000000e-01    6.959e-13   1.796e-08
